1 src:alsa-lib (= 1.1.2-1),src:bison (= 2:3.0.4.dfsg-1),src:c-ares (= 1.11.0-1),src:cdparanoia (= 3.10.2+debian-11),src:chrpath (= 0.16-2),src:cunit (= 2.1-3-dfsg-2),src:cvsps (= 2.1-7),src:datefudge (= 1.21),src:db-defaults (= 5.3.1),src:diffstat (= 1.61-1),src:docbook-to-man (= 1:2.0.0-34),src:ed (= 1.10-2.1),src:fam (= 2.7.0-17.1),src:fdupes (= 1:1.6.1-1),src:fuse (= 2.9.7-1),src:gnu-efi (= 3.0.4-2),src:gsl (= 2.1+dfsg-2),src:hardening-wrapper (= 2.8+nmu2),src:html2text (= 1.3.2a-18),src:hunspell (= 1.4.1-2),src:ilmbase (= 2.2.0-11),src:jansson (= 2.7-5),src:java-common (= 0.57),src:jbigkit (= 2.1-3.1),src:less (= 481-2.1),src:libaio (= 0.3.110-3),src:libapt-pkg-perl (= 0.1.29),src:libart-lgpl (= 2.3.21-2),src:libassuan (= 2.4.3-1),src:libbsd-resource-perl (= 1.2910-1),src:libdata-alias-perl (= 1.20-1),src:libdatrie (= 0.2.10-2),src:libdbi-perl (= 1.636-1),src:libev (= 1:4.22-1),src:libfcgi (= 2.4.0-8.4),src:libhtml-parser-perl (= 3.72-2),src:libiberty (= 20160807-1),src:libio-pty-perl (= 1:1.08-1.1),src:libksba (= 1.3.4-4),src:liblist-moreutils-perl (= 0.416-1),src:liblocale-gettext-perl (= 1.07-3),src:libndp (= 1.6-1),src:libnfnetlink (= 1.0.1-3),src:libogg (= 1.3.2-1),src:libonig (= 5.9.6-1),src:libparams-classify-perl (= 0.013-6),src:libparams-util-perl (= 1.07-3),src:libpthread-stubs (= 0.3-4),src:libraw1394 (= 2.1.2-1),src:libreadonly-xs-perl (= 1.05-1),src:libscalar-list-utils-perl (= 1:1.45-1),src:libseccomp (= 2.3.1-2),src:libsocket6-perl (= 0.27-1),src:libsort-key-perl (= 1.33-1),src:libsub-identify-perl (= 0.12-2),src:libsub-name-perl (= 0.19-1),src:libtaint-runtime-perl (= 0.3-2),src:libtest-taint-perl (= 1.06-1),src:libtext-iconv-perl (= 1.7-5),src:libtextwrap (= 0.1-14),src:libutempter (= 1.1.6-3),src:libvariable-magic-perl (= 0.59-2),src:libxml-libxml-perl (= 2.0128+dfsg-1),src:libyaml (= 0.1.6-3),src:libyaml-libyaml-perl (= 0.63-1),src:lksctp-tools (= 1.0.17+dfsg-1),src:lzo2 (= 2.08-1.2),src:mpdecimal (= 2.4.2-1),src:mxml (= 2.9-2),src:npth (= 1.2-3),src:nspr (= 2:4.12-6),src:numactl (= 2.0.11-1),src:openslp-dfsg (= 1.2.1-11),src:popt (= 1.16-10),src:potrace (= 1.13-2),src:procmail (= 3.22-25),src:psmisc (= 22.21-2.1),src:qpdf (= 6.0.0-2),src:ruby-defaults (= 1:2.3.0+4),src:symlinks (= 1.4-3),src:t1utils (= 1.39-2),src:tcl8.6 (= 8.6.6+dfsg-1),src:tcltk-defaults (= 8.6.0+9),src:tcp-wrappers (= 7.6.q-25),src:unzip (= 6.0-20),src:webrtc-audio-processing (= 0.3-1),src:wireless-tools (= 30~pre9-11),src:xapian-core (= 1.2.23-1),src:xdelta3 (= 3.0.11-dfsg-1),src:zip (= 3.0-11),src:zzuf (= 0.15-1)
2 src:blcr (= 0.8.5-2.3),src:dnprogs (= 2.64),src:expect (= 5.45-7),src:help2man (= 1.47.4),src:libclone-perl (= 0.38-2),src:libirman (= 0.4.4-2),src:libparams-validate-perl (= 1.24-1),src:libssh2 (= 1.7.0-1),src:libvorbis (= 1.3.5-3),src:lua5.1 (= 5.1.5-8.1),src:lua5.2 (= 5.2.4-1.1),src:lua5.3 (= 5.3.1-1.1),src:mawk (= 1.3.3-17),src:openexr (= 2.2.0-11),src:rsync (= 3.1.1-3),src:speex (= 1.2~rc1.2-1),src:sqlite (= 2.8.17-13),src:sqlite3 (= 3.14.1-1),src:sysfsutils (= 2.1.0+repack-4)
3 src:libdbd-sqlite3-perl (= 1.50-1),src:libpng1.6 (= 1.6.24-2),src:libtasn1-6 (= 4.9-4),src:net-tools (= 1.60+git20150829.73cef8a-2),src:nss (= 2:3.26-1),src:texinfo (= 6.1.0.dfsg.1-8)
4 src:aspell (= 0.60.7~20110707-3),src:chicken (= 4.10.0-1),src:cloog (= 0.18.4-1),src:cpio (= 2.11+dfsg-5),src:fastjar (= 2:0.98-6),src:flex (= 2.6.1-1),src:gperf (= 3.0.4-2),src:gpm (= 1.20.4-6.2),src:indent (= 2.2.11-4),src:libconfig (= 1.5-0.2),src:nettle (= 3.2-1),src:sharutils (= 1:4.15.2-1),src:time (= 1.7-25.1),src:wdiff (= 1.2.2-1)
5 src:bc (= 1.06.95-9),src:elfutils (= 0.166-2),src:hspell (= 1.2-3),src:libcap2 (= 1:2.25-1),src:libid3tag (= 0.15.1b-12),src:rdfind (= 1.3.4-2.1)
6 src:openssl (= 1.0.2h-1)
7 src:libesmtp (= 1.0.6-4),src:libevent (= 2.0.21-stable-2),src:libnet-ssleay-perl (= 1.77-1),src:socat (= 1.7.3.1-1),src:stunnel4 (= 3:5.35-1)
